@relation InstanceResultListener

@attribute Key_Dataset {iris}
@attribute Key_Run {0,1,2}
@attribute Key_Scheme {weka.classifiers.lazy.IBk}
@attribute Key_Scheme_options {'-K 3 -W 0 -A \"weka.core.neighboursearch.LinearNNSearch -A \\\"weka.core.EuclideanDistance -R first-last\\\"\"'}
@attribute Key_Scheme_version_ID {-3080186098777067172}
@attribute Date_time numeric
@attribute Number_of_training_instances numeric
@attribute Number_of_testing_instances numeric
@attribute Number_correct numeric
@attribute Number_incorrect numeric
@attribute Number_unclassified numeric
@attribute Percent_correct numeric
@attribute Percent_incorrect numeric
@attribute Percent_unclassified numeric
@attribute Kappa_statistic numeric
@attribute Mean_absolute_error numeric
@attribute Root_mean_squared_error numeric
@attribute Relative_absolute_error numeric
@attribute Root_relative_squared_error numeric
@attribute SF_prior_entropy numeric
@attribute SF_scheme_entropy numeric
@attribute SF_entropy_gain numeric
@attribute SF_mean_prior_entropy numeric
@attribute SF_mean_scheme_entropy numeric
@attribute SF_mean_entropy_gain numeric
@attribute KB_information numeric
@attribute KB_mean_information numeric
@attribute KB_relative_information numeric
@attribute True_positive_rate numeric
@attribute Num_true_positives numeric
@attribute False_positive_rate numeric
@attribute Num_false_positives numeric
@attribute True_negative_rate numeric
@attribute Num_true_negatives numeric
@attribute False_negative_rate numeric
@attribute Num_false_negatives numeric
@attribute IR_precision numeric
@attribute IR_recall numeric
@attribute F_measure numeric
@attribute Area_under_ROC numeric
@attribute Weighted_avg_true_positive_rate numeric
@attribute Weighted_avg_false_positive_rate numeric
@attribute Weighted_avg_true_negative_rate numeric
@attribute Weighted_avg_false_negative_rate numeric
@attribute Weighted_avg_IR_precision numeric
@attribute Weighted_avg_IR_recall numeric
@attribute Weighted_avg_F_measure numeric
@attribute Weighted_avg_area_under_ROC numeric
@attribute Elapsed_Time_training numeric
@attribute Elapsed_Time_testing numeric
@attribute UserCPU_Time_training numeric
@attribute UserCPU_Time_testing numeric
@attribute Serialized_Model_Size numeric
@attribute Serialized_Train_Set_Size numeric
@attribute Serialized_Test_Set_Size numeric
@attribute Summary string

@data

iris,0,weka.classifiers.lazy.IBk,'-K 3 -W 0 -A \"weka.core.neighboursearch.LinearNNSearch -A \\\"weka.core.EuclideanDistance -R first-last\\\"\"',-3080186098777067172,20160127.2158,2,118,38,80,0,32.20339,67.79661,0,0,0.447135,0.493004,100.180832,102.135786,196.987515,209.225768,-12.238253,1.669386,1.7731,-0.103714,3.583284,0.030367,235.443728,1,38,1,80,0,0,0,0,0.322034,1,0.487179,0.5,0.322034,0.322034,0.677966,0.677966,0.103706,0.322034,0.156888,0.5,0,0.001,0.000162,0.000675,3484,1846,9850,?
iris,1,weka.classifiers.lazy.IBk,'-K 3 -W 0 -A \"weka.core.neighboursearch.LinearNNSearch -A \\\"weka.core.EuclideanDistance -R first-last\\\"\"',-3080186098777067172,20160127.2158,2,118,38,80,0,32.20339,67.79661,0,0,0.447135,0.493004,100.180832,102.135786,196.987515,209.225768,-12.238253,1.669386,1.7731,-0.103714,3.583284,0.030367,235.443728,1,38,1,80,0,0,0,0,0.322034,1,0.487179,0.5,0.322034,0.322034,0.677966,0.677966,0.103706,0.322034,0.156888,0.5,0,0.001,0.000188,0.000672,3484,1846,9850,?
iris,2,weka.classifiers.lazy.IBk,'-K 3 -W 0 -A \"weka.core.neighboursearch.LinearNNSearch -A \\\"weka.core.EuclideanDistance -R first-last\\\"\"',-3080186098777067172,20160127.2158,2,118,38,80,0,32.20339,67.79661,0,0,0.447135,0.493004,100.180832,102.135786,196.987515,209.225768,-12.238253,1.669386,1.7731,-0.103714,3.583284,0.030367,235.443728,1,38,1,80,0,0,0,0,0.322034,1,0.487179,0.5,0.322034,0.322034,0.677966,0.677966,0.103706,0.322034,0.156888,0.5,0.001,0.001,0.000206,0.000793,3484,1846,9850,?
